size_0 {
	width=220
	height=200
}
size_3 {
	width=260
	height=250
}
size_2 {
	width=280
	height=300
}
size_4 {
	width=300
	height=280
}
size_5 {
	width=320
	height=270
}

size_6 {
	width=350
	height=280
}

size_7 {
	width=420
	height=300
}

size_8 {
	width=450
	height=500
}

size_9 {
	width=550
	height=320
}

size_10 {
	width=580
	height=400
}

size_11 {
	width=550
	height=740
}

size_12 {
	width=620
	height=450
}

size_13 {
	width=650
	height=580
}

size_14 {
	width=720
	height=800
}

size_15 {
	width=800
	height=850
}

size_16 {
	width=940
	height=950
}

size_17 {
	width=900
	height=1080
}